{
  "project_info": {
    "project_number": "381329461284",
    "firebase_url": "https://funbuttons-danielolivella.firebaseio.com",
    "project_id": "funbuttons-danielolivella",
    "storage_bucket": "funbuttons-danielolivella.appspot.com"
  },
  "client": [
    {
      "client_info": {
        "mobilesdk_app_id": "1:381329461284:android:3b0bbd90751fdf29",
        "android_client_info": {
          "package_name": "com.alexqueudot.soundbuttons"
        }
      },
      "oauth_client": [
        {
          "client_id": "381329461284-4rf6stcmr3n709tb2v579v4h1rruprol.apps.googleusercontent.com",
          "client_type": 3
        }
      ],
      "api_key": [
        {
          "current_key": "AIzaSyD9jbCsgChbEUs3BkM3NLR-n0z2-drb9Uc"
        }
      ],
      "services": {
        "analytics_service": {
          "status": 1
        },
        "appinvite_service": {
          "status": 1,
          "other_platform_oauth_client": []
        },
        "ads_service": {
          "status": 2
        }
      }
    }
  ],
  "configuration_version": "1"
}